EA000006
EA000011
EA000013
EA000016
EA000018
EAFFFFFE
EA000019
EA00001E
E59FD080
EB000021
E3A0003C
EB0000B1
E3A00001
EB000060
EAFFFFFE
454E4F44
00000000
E1A00000
E1A00000
E1A00000
E3A00001
EB0000C0
EAFFFFFE
E52DE004
EB000087
E49DE004
E1B0F00E
E3A00003
EB0000B9
EAFFFFFE
E3A00004
EB0000B6
EAFFFFFE
E59FD020
E24EE004
E52DE004
EB00005F
E49DE004
E1B0F00E
E3A00007
EB0000AD
EAFFFFFE
00010478
00020478
E3A00000
E3A01001
E3A020FF
E3A03601
E3A040FF
E3844CFF
E1A05804
E3E06000
E59F70A8
E2877F49
E59F80A0
E2888E56
E2888008
E59F9098
E59FA098
E59FB08C
E5870000
E5881000
E5C92000
E5CA3000
E1CB40B0
E1C950B4
E58B60F0
E887007F
E5970000
E5981000
E5D92000
E1DA30B0
E1DB40F0
E1D950D4
E5DB60F0
E897007F
E1A0500E
EB000014
E1A0E005
E5870000
E5881000
E5C92000
E5CA3000
E1CB40B0
E1C950B4
E58B60F0
E887007F
E5970000
E5981000
E5D92000
E1DA30B0
E1DB40F0
E1D950D4
E5DB60F0
E897007F
E12FFF1E
00030478
0018732C
00082320
E3E01102
EE031F10
E3A01001
EE021F10
E12FFF1E
E1A0100E
E10F0000
E3C000FF
E3800010
E129F000
E59FD00C
E12FFF11
E3A01000
E5810000
E12FFF1E
00030478
E92D4800
E28DB004
E3A00006
EB00005F
E24BD004
E8BD4800
E12FFF1E
E52DB004
E28DB000
E24DD00C
E50B0008
E59F2010
E51B3008
E5823000
E24BD000
E49DB004
E12FFF1E
00000470
E92D4800
E28DB004
E59F3014
E5933000
E1A0E00F
E12FFF13
E24BD004
E8BD4800
E12FFF1E
00000470
E92D4800
E28DB004
E3A00002
EB000043
E24BD004
E8BD4800
E12FFF1E
E52DB004
E28DB000
E24DD00C
E50B0008
E59F2010
E51B3008
E5823000
E24BD000
E49DB004
E12FFF1E
00000474
E92D4800
E28DB004
E59F3014
E5933000
E1A0E00F
E12FFF13
E24BD004
E8BD4800
E12FFF1E
00000474
E52DB004
E28DB000
E24DD00C
E1A03000
E54B3005
E1A00000
E59F3024
E5933000
E2033002
E3530000
1AFFFFFA
E59F2014
E55B3005
E5823000
E24BD000
E49DB004
E12FFF1E
FFFF0020
FFFF0000
E92D4800
E28DB004
E24DD008
E50B0008
EA00000C
E51B3008
E5D33000
E353000A
1A000001
E3A0000D
EBFFFFE1
E51B3008
E5D33000
E1A00003
EBFFFFDD
E51B3008
E2833001
E50B3008
E51B3008
E5D33000
E3530000
1AFFFFEE
E24BD004
E8BD4800
E12FFF1E
E92D4800
E28DB004
E24DD028
E50B0028
E59F3064
E24BC024
E1A0E003
E8BE000F
E8AC000F
E89E000F
E88C000F
E59F004C
EBFFFFD9
E51B3028
E3530007
9A000002
E59F003C
EBFFFFD4
EA000006
E51B3028
E1A03103
E24B2004
E0823003
E5133020
E1A00003
EBFFFFCC
E3A00000
EBFFFF7B
E24BD004
E8BD4800
E12FFF1E
0000044C
000003E8
000003F4
00000000
65637845
6F697470
0000206E
6B6E753C
6E776F6E
0000003E
65736572
00000074
65646E75
656E6966
00000064
00697773
66657270
68637465
6F62615F
00007472
61746164
6F62615F
00007472
5345522A
45565245
00002A44
00717269
71726966
00000000
00000400
00000408
00000414
00000418
00000428
00000434
00000440
00000444
00000000
000001CC
0000023C
