EA000006
EA000011
EA000013
EA000016
EA000018
EAFFFFFE
EA000019
EA00001E
E59FD080
EB000021
E3A0003C
EB0000C4
E3A00001
EB000073
EAFFFFFE
454E4F44
00000000
E1A00000
E1A00000
E1A00000
E3A00001
EB0000D3
EAFFFFFE
E52DE004
EB00009A
E49DE004
E1B0F00E
E3A00003
EB0000CC
EAFFFFFE
E3A00004
EB0000C9
EAFFFFFE
E59FD020
E24EE004
E52DE004
EB000072
E49DE004
E1B0F00E
E3A00007
EB0000C0
EAFFFFFE
000104C0
000204C0
E3A00000
E3A01001
E3A020AA
E3A030FF
E3A04A01
E3A050FF
E3855CFF
E3A060AA
E3866CAA
E3A07201
E1A08805
E1A09405
E186A806
E3E0B000
E3A00000
E0813005
E2800001
E350000A
BAFFFFFB
E52DE004
EB000034
E49DE004
E3A00000
E1A00000
E1A00000
E1A00000
E0813005
E2800001
E350000A
BAFFFFFB
E0836002
E0836082
E0836102
E0836182
E0836002
E0836082
E0836102
E0836182
E0836202
E0836282
E0836302
E0836382
E0836402
E0836482
E0836502
E0836582
E0060897
E0090B9A
E0C65897
E0C93B9A
E0865897
E0893B9A
E3A0133E
E3A00000
E5812000
E5813028
E5814050
E5912000
E5913028
E5914050
E2800001
E350000A
BAFFFFF6
E3A00000
E5812000
E5813028
E5814050
E5912000
E5913028
E5914050
E2800001
E350000A
BAFFFFF6
E12FFF1E
E3E01102
EE031F10
E3A01001
EE021F10
E12FFF1E
E1A0100E
E10F0000
E3C000FF
E3800010
E129F000
E59FD00C
E12FFF11
E3A01000
E5810000
E12FFF1E
000304C0
E92D4800
E28DB004
E3A00006
EB00005F
E24BD004
E8BD4800
E12FFF1E
E52DB004
E28DB000
E24DD00C
E50B0008
E59F2010
E51B3008
E5823000
E24BD000
E49DB004
E12FFF1E
000004B8
E92D4800
E28DB004
E59F3014
E5933000
E1A0E00F
E12FFF13
E24BD004
E8BD4800
E12FFF1E
000004B8
E92D4800
E28DB004
E3A00002
EB000043
E24BD004
E8BD4800
E12FFF1E
E52DB004
E28DB000
E24DD00C
E50B0008
E59F2010
E51B3008
E5823000
E24BD000
E49DB004
E12FFF1E
000004BC
E92D4800
E28DB004
E59F3014
E5933000
E1A0E00F
E12FFF13
E24BD004
E8BD4800
E12FFF1E
000004BC
E52DB004
E28DB000
E24DD00C
E1A03000
E54B3005
E1A00000
E59F3024
E5933000
E2033002
E3530000
1AFFFFFA
E59F2014
E55B3005
E5823000
E24BD000
E49DB004
E12FFF1E
FFFF0020
FFFF0000
E92D4800
E28DB004
E24DD008
E50B0008
EA00000C
E51B3008
E5D33000
E353000A
1A000001
E3A0000D
EBFFFFE1
E51B3008
E5D33000
E1A00003
EBFFFFDD
E51B3008
E2833001
E50B3008
E51B3008
E5D33000
E3530000
1AFFFFEE
E24BD004
E8BD4800
E12FFF1E
E92D4800
E28DB004
E24DD028
E50B0028
E59F3064
E24BC024
E1A0E003
E8BE000F
E8AC000F
E89E000F
E88C000F
E59F004C
EBFFFFD9
E51B3028
E3530007
9A000002
E59F003C
EBFFFFD4
EA000006
E51B3028
E1A03103
E24B2004
E0823003
E5133020
E1A00003
EBFFFFCC
E3A00000
EBFFFF7B
E24BD004
E8BD4800
E12FFF1E
00000494
00000430
0000043C
65637845
6F697470
0000206E
6B6E753C
6E776F6E
0000003E
65736572
00000074
65646E75
656E6966
00000064
00697773
66657270
68637465
6F62615F
00007472
61746164
6F62615F
00007472
5345522A
45565245
00002A44
00717269
71726966
00000000
00000448
00000450
0000045C
00000460
00000470
0000047C
00000488
0000048C
00000000
00000218
00000288
